newmtl Layer 1 Front Inflation Material
Ka 0.000000 0.000000 0.000000
Kd 0.909790 0.458832 0.027466
Ks 0.000000 0.000000 0.000000
adobe_interior_color 0.803922 0.803922 0.803922
Ns 2.000000
d 1.000000
Tr 0.000000
Pr 0.333333
Pm 0.080000
adobe_density 0.000000
adobe_translucence 0.000000
adobe_glow 0.000000
map_Kd -s 0.986328 1.003666 1.0 -o 0.007294 -0.003792 1.0 Layer 1.psd 

newmtl Layer 1 Front Bevel Material
Ka 0.000000 0.000000 0.000000
Kd 0.500000 0.500000 0.500000
Ks 0.000000 0.000000 0.000000
adobe_interior_color 0.803922 0.803922 0.803922
Ns 2.000000
d 1.000000
Tr 0.000000
Pr 0.333333
Pm 0.080000
adobe_density 0.000000
adobe_translucence 0.000000
adobe_glow 0.000000
map_Kd -s 0.986328 1.003666 1.0 -o 0.007294 -0.003792 1.0 Layer 1.psd 

newmtl Layer 1 Extrusion Material
Ka 0.000000 0.000000 0.000000
Kd 0.500000 0.500000 0.500000
Ks 0.000000 0.000000 0.000000
adobe_interior_color 0.803922 0.803922 0.803922
Ns 2.000000
d 1.000000
Tr 0.000000
Pr 0.333333
Pm 0.080000
adobe_density 0.000000
adobe_translucence 0.000000
adobe_glow 0.000000
map_Kd Layer 1 Extrusion Material - Default Texture.psd 

newmtl Layer 1 Back Bevel Material
Ka 0.000000 0.000000 0.000000
Kd 0.500000 0.500000 0.500000
Ks 0.000000 0.000000 0.000000
adobe_interior_color 0.803922 0.803922 0.803922
Ns 2.000000
d 1.000000
Tr 0.000000
Pr 0.333333
Pm 0.080000
adobe_density 0.000000
adobe_translucence 0.000000
adobe_glow 0.000000
map_Kd -s 0.986328 1.003666 1.0 -o 0.007294 -0.003792 1.0 Layer 1.psd 

newmtl Layer 1 Back Inflation Material
Ka 0.000000 0.000000 0.000000
Kd 0.890198 0.443146 0.015686
Ks 0.000000 0.000000 0.000000
adobe_interior_color 0.803922 0.803922 0.803922
Ns 2.000000
d 1.000000
Tr 0.000000
Pr 0.333333
Pm 0.080000
adobe_density 0.000000
adobe_translucence 0.000000
adobe_glow 0.000000
map_Kd -s 0.986328 1.003666 1.0 -o 0.007294 -0.003792 1.0 Layer 1.psd 

